Which of the following C++ statements contain variables whose values are replaced? 
1.cin >> b >> c >> d >> e >> f;    b, c, d, e, f
2.p = i + j + k + 7;    p
3.cout << "variables whose values are replaced"; none
4.cout << "a = 5"; none
