1) int t[3][4];
2) row - 3
3) column - 4
4) 12
5) t[1][0], t[1][1], t[1][2], t[1][3];
6) t[0][2], t[1][2], t[2][2];
7) t[0][1] = 0;
8)  t[0][0] = 0;
    t[0][1] = 0;
    t[0][2] = 0;
    t[0][3] = 0;
    t[1][0] = 0;
    t[1][1] = 0;
    t[1][2] = 0;
    t[1][3] = 0;
    t[2][0] = 0;
    t[2][1] = 0;
    t[2][2] = 0;
    t[2][3] = 0;
9)  for (int i = 0; i < 3; ++i) {
        for (int j = 0; j < 4; ++j) {
           t[i][j] = 0;
        }
    }
10) for (int i = 0; i < 3; ++j) {
        for (int j = 0; j < 4; ++j) {
           std::cin >> t[i][j];
        }
    }
11) int min = t[0][0];
    for (int i = 0; i < 3; ++i) {
        for (int j = 0; j < 4; ++j) {
            if (min > t[i][j]) {
                min = t[i][j];
            }
        }
    }
    std::cout << "Min: " << min << std::endl;

12) for (int j = 0; j < 4; ++j) {
       std::cout << t[0][j] << "\n";
    }

13) int sum = 0;
    for (int i = 0; i < 3; ++i) {
        sum += t[i][3];
    }

14) for (int i = 0; i < 4; ++i) {
        std::cout << i << " ";
    }
    std::cout << "\n";
    for (int i = 0; i < 3; ++i) {
        std::cout << i << " ";
        for (int j = 0; j < 4; ++j) {
            std::cout << t[i][j] << "  ";
        }
        std::cout << std::endl;
    }
